{
    "image_file": "joda.jpg",
    "master_file": "master.png",
    "dir": "",
    "drawing_heigth_cm": 29.7,
    "drawing_width_cm": 21.0,
    "dim": 25,
    "ppp": 600,
    "layout": [
        21.0,
        29.7
    ],
    "planes": [
        {
            "name": "horizontal",
            "topleft": [
                1,
                1
            ],
            "axis": [
                0,
                1
            ],
            "a": [
                0.0,
                0.0
            ],
            "b": [
                0.0,
                25.0
            ],
            "c": [
                25.0,
                25.0
            ],
            "d": [
                25.0,
                0.0
            ],
            "A": [
                1331,
                3507
            ],
            "B": [
                3630,
                3509
            ],
            "C": [
                3838,
                4955
            ],
            "D": [
                1114,
                4952
            ]
        },
        {
            "name": "vertical",
            "axis": [
                1,
                2
            ],
            "topleft": [
                1,
                0
            ],
            "a": [
                0.0,
                25.0
            ],
            "b": [
                25.0,
                25.0
            ],
            "c": [
                25.0,
                0.0
            ],
            "d": [
                0.0,
                0.0
            ],
            "A": [
                1206,
                1347
            ],
            "B": [
                3755,
                1349
            ],
            "C": [
                3630,
                3509
            ],
            "D": [
                1331,
                3507
            ]
        },
        {
            "name": "side",
            "axis": [
                0,
                2
            ],
            "topleft": [
                0,
                0
            ],
            "a": [
                25.0,
                25.0
            ],
            "b": [
                0.0,
                25.0
            ],
            "c": [
                0.0,
                0.0
            ],
            "d": [
                25.0,
                0.0
            ],
            "A": [
                934,
                2530
            ],
            "B": [
                1206,
                1347
            ],
            "C": [
                1331,
                3507
            ],
            "D": [
                1114,
                4952
            ]
        }
    ]
}